toysandshare.alwaysdata.net 85.192.72.197 - - [08/Apr/2022:15:22:55 +0200] "GET / HTTP/1.1" 302 2665 "-" "Mozilla/5.0 (X11; Linux x86_64) AppleWebKit/537.36 (KHTML, like Gecko) Chrome/85.0.4183.121 Safari/537.36"
toysandshare.alwaysdata.net 85.192.72.197 - - [08/Apr/2022:15:22:55 +0200] "GET /register/register.php HTTP/1.1" 200 2415 "-" "Mozilla/5.0 (X11; Linux x86_64) AppleWebKit/537.36 (KHTML, like Gecko) Chrome/85.0.4183.121 Safari/537.36"
toysandshare.alwaysdata.net 85.192.72.197 - - [08/Apr/2022:15:22:56 +0200] "GET /favicon.ico HTTP/1.1" 404 196 "http://toysandshare.alwaysdata.net/register/register.php" "Mozilla/5.0 (X11; Linux x86_64) AppleWebKit/537.36 (KHTML, like Gecko) Chrome/85.0.4183.121 Safari/537.36"
toysandshare.alwaysdata.net 66.102.8.240 - - [08/Apr/2022:15:27:13 +0200] "GET / HTTP/1.1" 302 2665 "http://www.google.com/search" "Mozilla/5.0 (X11; Linux x86_64)  AppleWebKit/537.36 (KHTML, like Gecko; Google Web Preview)  Chrome/99.0.4844.84 Safari/537.36"
toysandshare.alwaysdata.net 66.102.8.244 - - [08/Apr/2022:15:27:14 +0200] "GET /register/register.php HTTP/1.1" 200 2140 "http://www.google.com/search" "Mozilla/5.0 (X11; Linux x86_64)  AppleWebKit/537.36 (KHTML, like Gecko; Google Web Preview)  Chrome/99.0.4844.84 Safari/537.36"
toysandshare.alwaysdata.net 85.192.72.197 - - [08/Apr/2022:15:27:35 +0200] "POST /register/addNewUser.php HTTP/1.1" 200 161 "http://toysandshare.alwaysdata.net/register/register.php" "Mozilla/5.0 (X11; Linux x86_64) AppleWebKit/537.36 (KHTML, like Gecko) Chrome/85.0.4183.121 Safari/537.36"
toysandshare.alwaysdata.net 85.192.72.197 - - [08/Apr/2022:15:27:35 +0200] "GET /login/login.php HTTP/1.1" 200 2344 "http://toysandshare.alwaysdata.net/register/register.php" "Mozilla/5.0 (X11; Linux x86_64) AppleWebKit/537.36 (KHTML, like Gecko) Chrome/85.0.4183.121 Safari/537.36"
toysandshare.alwaysdata.net 85.192.72.197 - - [08/Apr/2022:15:27:36 +0200] "POST /register/register.php HTTP/1.1" 200 2415 "http://toysandshare.alwaysdata.net/register/register.php" "Mozilla/5.0 (X11; Linux x86_64) AppleWebKit/537.36 (KHTML, like Gecko) Chrome/85.0.4183.121 Safari/537.36"
toysandshare.alwaysdata.net 85.192.72.197 - - [08/Apr/2022:15:27:52 +0200] "POST /login/login.php HTTP/1.1" 302 187 "http://toysandshare.alwaysdata.net/login/login.php" "Mozilla/5.0 (X11; Linux x86_64) AppleWebKit/537.36 (KHTML, like Gecko) Chrome/85.0.4183.121 Safari/537.36"
toysandshare.alwaysdata.net 85.192.72.197 - - [08/Apr/2022:15:27:52 +0200] "GET /products/css/estilos.css HTTP/1.1" 404 196 "http://toysandshare.alwaysdata.net/products/products.php?user=14" "Mozilla/5.0 (X11; Linux x86_64) AppleWebKit/537.36 (KHTML, like Gecko) Chrome/85.0.4183.121 Safari/537.36"
toysandshare.alwaysdata.net 85.192.72.197 - - [08/Apr/2022:15:27:52 +0200] "GET /products/scripts/require-jquery.js HTTP/1.1" 404 196 "http://toysandshare.alwaysdata.net/products/products.php?user=14" "Mozilla/5.0 (X11; Linux x86_64) AppleWebKit/537.36 (KHTML, like Gecko) Chrome/85.0.4183.121 Safari/537.36"
toysandshare.alwaysdata.net 85.192.72.197 - - [08/Apr/2022:15:27:52 +0200] "GET /products/css/estilo_menu.css HTTP/1.1" 404 196 "http://toysandshare.alwaysdata.net/products/products.php?user=14" "Mozilla/5.0 (X11; Linux x86_64) AppleWebKit/537.36 (KHTML, like Gecko) Chrome/85.0.4183.121 Safari/537.36"
toysandshare.alwaysdata.net 85.192.72.197 - - [08/Apr/2022:15:27:52 +0200] "GET /products/link HTTP/1.1" 404 196 "http://toysandshare.alwaysdata.net/products/products.php?user=14" "Mozilla/5.0 (X11; Linux x86_64) AppleWebKit/537.36 (KHTML, like Gecko) Chrome/85.0.4183.121 Safari/537.36"
toysandshare.alwaysdata.net 85.192.72.197 - - [08/Apr/2022:15:27:52 +0200] "GET /products/products.php?user=14 HTTP/1.1" 200 13166 "http://toysandshare.alwaysdata.net/login/login.php" "Mozilla/5.0 (X11; Linux x86_64) AppleWebKit/537.36 (KHTML, like Gecko) Chrome/85.0.4183.121 Safari/537.36"
toysandshare.alwaysdata.net 85.192.72.197 - - [08/Apr/2022:15:27:52 +0200] "GET /products/somelink HTTP/1.1" 404 196 "http://toysandshare.alwaysdata.net/products/products.php?user=14" "Mozilla/5.0 (X11; Linux x86_64) AppleWebKit/537.36 (KHTML, like Gecko) Chrome/85.0.4183.121 Safari/537.36"
toysandshare.alwaysdata.net 85.192.72.197 - - [08/Apr/2022:15:27:53 +0200] "GET /products/link?nah HTTP/1.1" 404 196 "http://toysandshare.alwaysdata.net/products/products.php?user=14" "Mozilla/5.0 (X11; Linux x86_64) AppleWebKit/537.36 (KHTML, like Gecko) Chrome/85.0.4183.121 Safari/537.36"
toysandshare.alwaysdata.net 85.192.72.197 - - [08/Apr/2022:15:27:53 +0200] "GET /products/link HTTP/1.1" 404 196 "http://toysandshare.alwaysdata.net/products/products.php?user=14" "Mozilla/5.0 (X11; Linux x86_64) AppleWebKit/537.36 (KHTML, like Gecko) Chrome/85.0.4183.121 Safari/537.36"
toysandshare.alwaysdata.net 85.192.72.197 - - [08/Apr/2022:15:28:21 +0200] "GET /products/newProduct.php?user=14 HTTP/1.1" 200 5050 "http://toysandshare.alwaysdata.net/products/products.php?user=14" "Mozilla/5.0 (X11; Linux x86_64) AppleWebKit/537.36 (KHTML, like Gecko) Chrome/85.0.4183.121 Safari/537.36"
toysandshare.alwaysdata.net 85.192.72.197 - - [08/Apr/2022:15:28:21 +0200] "GET /products/css/estilos.css HTTP/1.1" 404 196 "http://toysandshare.alwaysdata.net/products/newProduct.php?user=14" "Mozilla/5.0 (X11; Linux x86_64) AppleWebKit/537.36 (KHTML, like Gecko) Chrome/85.0.4183.121 Safari/537.36"
toysandshare.alwaysdata.net 85.192.72.197 - - [08/Apr/2022:15:28:21 +0200] "GET /css/main.css HTTP/1.1" 200 1565 "http://toysandshare.alwaysdata.net/products/newProduct.php?user=14" "Mozilla/5.0 (X11; Linux x86_64) AppleWebKit/537.36 (KHTML, like Gecko) Chrome/85.0.4183.121 Safari/537.36"
toysandshare.alwaysdata.net 85.192.72.197 - - [08/Apr/2022:15:28:21 +0200] "GET /products/scripts/require-jquery.js HTTP/1.1" 404 196 "http://toysandshare.alwaysdata.net/products/newProduct.php?user=14" "Mozilla/5.0 (X11; Linux x86_64) AppleWebKit/537.36 (KHTML, like Gecko) Chrome/85.0.4183.121 Safari/537.36"
toysandshare.alwaysdata.net 85.192.72.197 - - [08/Apr/2022:15:28:21 +0200] "GET /products/css/estilo_menu.css HTTP/1.1" 404 196 "http://toysandshare.alwaysdata.net/products/newProduct.php?user=14" "Mozilla/5.0 (X11; Linux x86_64) AppleWebKit/537.36 (KHTML, like Gecko) Chrome/85.0.4183.121 Safari/537.36"
toysandshare.alwaysdata.net 85.192.72.197 - - [08/Apr/2022:15:28:21 +0200] "GET /products/scripts/require-jquery.js HTTP/1.1" 404 196 "http://toysandshare.alwaysdata.net/products/newProduct.php?user=14" "Mozilla/5.0 (X11; Linux x86_64) AppleWebKit/537.36 (KHTML, like Gecko) Chrome/85.0.4183.121 Safari/537.36"
toysandshare.alwaysdata.net 85.192.72.197 - - [08/Apr/2022:15:28:21 +0200] "GET /products/css/estilo_menu.css HTTP/1.1" 404 196 "http://toysandshare.alwaysdata.net/products/newProduct.php?user=14" "Mozilla/5.0 (X11; Linux x86_64) AppleWebKit/537.36 (KHTML, like Gecko) Chrome/85.0.4183.121 Safari/537.36"
toysandshare.alwaysdata.net 85.192.72.197 - - [08/Apr/2022:15:29:05 +0200] "GET /products/css/estilo_menu.css HTTP/1.1" 404 196 "http://toysandshare.alwaysdata.net/products/products.php?user=14" "Mozilla/5.0 (X11; Linux x86_64) AppleWebKit/537.36 (KHTML, like Gecko) Chrome/85.0.4183.121 Safari/537.36"
toysandshare.alwaysdata.net 85.192.72.197 - - [08/Apr/2022:15:29:05 +0200] "GET /products/scripts/require-jquery.js HTTP/1.1" 404 196 "http://toysandshare.alwaysdata.net/products/products.php?user=14" "Mozilla/5.0 (X11; Linux x86_64) AppleWebKit/537.36 (KHTML, like Gecko) Chrome/85.0.4183.121 Safari/537.36"
toysandshare.alwaysdata.net 85.192.72.197 - - [08/Apr/2022:15:29:05 +0200] "GET /products/css/estilo_menu.css HTTP/1.1" 404 196 "http://toysandshare.alwaysdata.net/products/products.php?user=14" "Mozilla/5.0 (X11; Linux x86_64) AppleWebKit/537.36 (KHTML, like Gecko) Chrome/85.0.4183.121 Safari/537.36"
toysandshare.alwaysdata.net 85.192.72.197 - - [08/Apr/2022:15:29:05 +0200] "GET /products/css/estilos.css HTTP/1.1" 404 196 "http://toysandshare.alwaysdata.net/products/products.php?user=14" "Mozilla/5.0 (X11; Linux x86_64) AppleWebKit/537.36 (KHTML, like Gecko) Chrome/85.0.4183.121 Safari/537.36"
toysandshare.alwaysdata.net 85.192.72.197 - - [08/Apr/2022:15:29:05 +0200] "GET /products/products.php?user=14 HTTP/1.1" 200 13166 "http://toysandshare.alwaysdata.net/products/newProduct.php?user=14" "Mozilla/5.0 (X11; Linux x86_64) AppleWebKit/537.36 (KHTML, like Gecko) Chrome/85.0.4183.121 Safari/537.36"
toysandshare.alwaysdata.net 85.192.72.197 - - [08/Apr/2022:15:29:05 +0200] "GET /products/link HTTP/1.1" 404 196 "http://toysandshare.alwaysdata.net/products/products.php?user=14" "Mozilla/5.0 (X11; Linux x86_64) AppleWebKit/537.36 (KHTML, like Gecko) Chrome/85.0.4183.121 Safari/537.36"
toysandshare.alwaysdata.net 85.192.72.197 - - [08/Apr/2022:15:29:05 +0200] "GET /products/somelink HTTP/1.1" 404 196 "http://toysandshare.alwaysdata.net/products/products.php?user=14" "Mozilla/5.0 (X11; Linux x86_64) AppleWebKit/537.36 (KHTML, like Gecko) Chrome/85.0.4183.121 Safari/537.36"
toysandshare.alwaysdata.net 85.192.72.197 - - [08/Apr/2022:15:29:05 +0200] "GET /products/link HTTP/1.1" 404 196 "http://toysandshare.alwaysdata.net/products/products.php?user=14" "Mozilla/5.0 (X11; Linux x86_64) AppleWebKit/537.36 (KHTML, like Gecko) Chrome/85.0.4183.121 Safari/537.36"
toysandshare.alwaysdata.net 85.192.72.197 - - [08/Apr/2022:15:29:05 +0200] "GET /products/link?nah HTTP/1.1" 404 196 "http://toysandshare.alwaysdata.net/products/products.php?user=14" "Mozilla/5.0 (X11; Linux x86_64) AppleWebKit/537.36 (KHTML, like Gecko) Chrome/85.0.4183.121 Safari/537.36"
toysandshare.alwaysdata.net 85.192.72.197 - - [08/Apr/2022:15:29:31 +0200] "GET /products/newProduct.php?user=14 HTTP/1.1" 200 5050 "http://toysandshare.alwaysdata.net/products/products.php?user=14" "Mozilla/5.0 (X11; Linux x86_64) AppleWebKit/537.36 (KHTML, like Gecko) Chrome/85.0.4183.121 Safari/537.36"
toysandshare.alwaysdata.net 85.192.72.197 - - [08/Apr/2022:15:29:31 +0200] "GET /products/css/estilo_menu.css HTTP/1.1" 404 196 "http://toysandshare.alwaysdata.net/products/newProduct.php?user=14" "Mozilla/5.0 (X11; Linux x86_64) AppleWebKit/537.36 (KHTML, like Gecko) Chrome/85.0.4183.121 Safari/537.36"
toysandshare.alwaysdata.net 85.192.72.197 - - [08/Apr/2022:15:29:31 +0200] "GET /products/css/estilos.css HTTP/1.1" 404 196 "http://toysandshare.alwaysdata.net/products/newProduct.php?user=14" "Mozilla/5.0 (X11; Linux x86_64) AppleWebKit/537.36 (KHTML, like Gecko) Chrome/85.0.4183.121 Safari/537.36"
toysandshare.alwaysdata.net 85.192.72.197 - - [08/Apr/2022:15:29:31 +0200] "GET /products/scripts/require-jquery.js HTTP/1.1" 404 196 "http://toysandshare.alwaysdata.net/products/newProduct.php?user=14" "Mozilla/5.0 (X11; Linux x86_64) AppleWebKit/537.36 (KHTML, like Gecko) Chrome/85.0.4183.121 Safari/537.36"
toysandshare.alwaysdata.net 85.192.72.197 - - [08/Apr/2022:15:29:31 +0200] "GET /products/scripts/require-jquery.js HTTP/1.1" 404 196 "http://toysandshare.alwaysdata.net/products/newProduct.php?user=14" "Mozilla/5.0 (X11; Linux x86_64) AppleWebKit/537.36 (KHTML, like Gecko) Chrome/85.0.4183.121 Safari/537.36"
toysandshare.alwaysdata.net 85.192.72.197 - - [08/Apr/2022:15:29:31 +0200] "GET /products/css/estilo_menu.css HTTP/1.1" 404 196 "http://toysandshare.alwaysdata.net/products/newProduct.php?user=14" "Mozilla/5.0 (X11; Linux x86_64) AppleWebKit/537.36 (KHTML, like Gecko) Chrome/85.0.4183.121 Safari/537.36"
toysandshare.alwaysdata.net 85.192.72.197 - - [08/Apr/2022:15:29:38 +0200] "GET /products/products.php?user=14 HTTP/1.1" 200 13166 "http://toysandshare.alwaysdata.net/products/newProduct.php?user=14" "Mozilla/5.0 (X11; Linux x86_64) AppleWebKit/537.36 (KHTML, like Gecko) Chrome/85.0.4183.121 Safari/537.36"
toysandshare.alwaysdata.net 85.192.72.197 - - [08/Apr/2022:15:29:59 +0200] "GET /user/user.php?user=14 HTTP/1.1" 200 8239 "http://toysandshare.alwaysdata.net/products/products.php?user=14" "Mozilla/5.0 (X11; Linux x86_64) AppleWebKit/537.36 (KHTML, like Gecko) Chrome/85.0.4183.121 Safari/537.36"
toysandshare.alwaysdata.net 85.192.72.197 - - [08/Apr/2022:15:30:20 +0200] "GET / HTTP/1.1" 302 2665 "-" "Mozilla/5.0 (X11; Linux x86_64) AppleWebKit/537.36 (KHTML, like Gecko) Chrome/85.0.4183.121 Safari/537.36"
toysandshare.alwaysdata.net 85.192.72.197 - - [08/Apr/2022:15:30:20 +0200] "GET /register/register.php HTTP/1.1" 200 2415 "-" "Mozilla/5.0 (X11; Linux x86_64) AppleWebKit/537.36 (KHTML, like Gecko) Chrome/85.0.4183.121 Safari/537.36"
toysandshare.alwaysdata.net 85.192.72.197 - - [08/Apr/2022:15:30:36 +0200] "GET /login/login.php HTTP/1.1" 200 2344 "http://toysandshare.alwaysdata.net/register/register.php" "Mozilla/5.0 (X11; Linux x86_64) AppleWebKit/537.36 (KHTML, like Gecko) Chrome/85.0.4183.121 Safari/537.36"
toysandshare.alwaysdata.net 85.192.72.197 - - [08/Apr/2022:15:30:40 +0200] "GET /register/register.php HTTP/1.1" 200 2415 "-" "Mozilla/5.0 (X11; Linux x86_64) AppleWebKit/537.36 (KHTML, like Gecko) Chrome/85.0.4183.121 Safari/537.36"
toysandshare.alwaysdata.net 85.192.72.197 - - [08/Apr/2022:15:30:59 +0200] "GET /login/login.php HTTP/1.1" 200 2344 "http://toysandshare.alwaysdata.net/register/register.php" "Mozilla/5.0 (X11; Linux x86_64) AppleWebKit/537.36 (KHTML, like Gecko) Chrome/85.0.4183.121 Safari/537.36"
toysandshare.alwaysdata.net 85.192.72.197 - - [08/Apr/2022:15:31:25 +0200] "GET /products/products.php HTTP/1.1" 200 9562 "http://toysandshare.alwaysdata.net/login/login.php" "Mozilla/5.0 (X11; Linux x86_64) AppleWebKit/537.36 (KHTML, like Gecko) Chrome/85.0.4183.121 Safari/537.36"
toysandshare.alwaysdata.net 85.192.72.197 - - [08/Apr/2022:15:31:27 +0200] "GET /login/login.php HTTP/1.1" 200 2344 "http://toysandshare.alwaysdata.net/register/register.php" "Mozilla/5.0 (X11; Linux x86_64) AppleWebKit/537.36 (KHTML, like Gecko) Chrome/85.0.4183.121 Safari/537.36"
